﻿1111111111111111111
1222222221222222221
1011211121211121101
1222222222222222221
1211212111112121121
1222212221222122221
1111211101011121111
0001210000000121000
1111210111110121111
0000200100010020000
1111210111110121111
0001210000000121000
1111210111110121111
1222222221222222221
1211211121211121121
1221222220222221221
1121212111112121211
1222212221222122221
1011111121211111101
1222222222222222221
1111111111111111111